\relax 
\providecommand \oddpage@label [2]{}
\select@language{english}
\@writefile{toc}{\select@language{english}}
\@writefile{lof}{\select@language{english}}
\@writefile{lot}{\select@language{english}}
\@writefile{toc}{\contentsline {chapter}{Abstract}{1}}
\citation{ESD}
\@writefile{toc}{\contentsline {chapter}{\numberline {1}Introduction}{3}}
\@writefile{lof}{\addvspace {10\p@ }}
\@writefile{lot}{\addvspace {10\p@ }}
\@writefile{toc}{\contentsline {chapter}{\numberline {2}Architecture overview}{5}}
\@writefile{lof}{\addvspace {10\p@ }}
\@writefile{lot}{\addvspace {10\p@ }}
\@writefile{lof}{\contentsline {figure}{\numberline {2.1}{\ignorespaces The MIPS Single-cycle architecture}}{5}}
\newlabel{figure:mips_arch}{{2.1}{5}}
\@writefile{lof}{\contentsline {figure}{\numberline {2.2}{\ignorespaces The formats of the instructions}}{6}}
\newlabel{figure:instr_format}{{2.2}{6}}
\@writefile{toc}{\contentsline {chapter}{\numberline {3}The Datapath}{7}}
\@writefile{lof}{\addvspace {10\p@ }}
\@writefile{lot}{\addvspace {10\p@ }}
\@writefile{toc}{\contentsline {section}{\numberline {3.1}Logic gates}{7}}
\@writefile{lof}{\contentsline {figure}{\numberline {3.1}{\ignorespaces The logic gates}}{7}}
\newlabel{figure:logic_gates_uml}{{3.1}{7}}
\@writefile{toc}{\contentsline {section}{\numberline {3.2}Full-adder}{7}}
\@writefile{lof}{\contentsline {figure}{\numberline {3.2}{\ignorespaces The full\_adder class}}{7}}
\newlabel{figure:full_adder_uml}{{3.2}{7}}
\@writefile{toc}{\contentsline {section}{\numberline {3.3}Multiplexer}{8}}
\@writefile{lof}{\contentsline {figure}{\numberline {3.3}{\ignorespaces The mux class}}{8}}
\newlabel{figure:mux_uml}{{3.3}{8}}
\@writefile{toc}{\contentsline {section}{\numberline {3.4}Arithmetic Logic Unit (ALU)}{9}}
\@writefile{toc}{\contentsline {subsection}{\numberline {3.4.1}1 bit ALU}{9}}
\@writefile{lof}{\contentsline {figure}{\numberline {3.4}{\ignorespaces The alu class}}{9}}
\newlabel{figure:alu_uml}{{3.4}{9}}
\@writefile{lof}{\contentsline {figure}{\numberline {3.5}{\ignorespaces UML diagram for the 1 bit ALU}}{9}}
\newlabel{figure:alu_structural}{{3.5}{9}}
\@writefile{toc}{\contentsline {subsection}{\numberline {3.4.2}32 bit ALU}{10}}
\@writefile{lof}{\contentsline {figure}{\numberline {3.6}{\ignorespaces The alu32 class}}{10}}
\newlabel{figure:alu32_uml}{{3.6}{10}}
\@writefile{lof}{\contentsline {figure}{\numberline {3.7}{\ignorespaces UML diagram for the 32 bit ALU}}{10}}
\newlabel{figure:alu32_structural}{{3.7}{10}}
\@writefile{lot}{\contentsline {table}{\numberline {3.1}{\ignorespaces The values of the control inputs for the ALU with the respective operations}}{11}}
\@writefile{toc}{\contentsline {section}{\numberline {3.5}Shifter}{11}}
\@writefile{lof}{\contentsline {figure}{\numberline {3.8}{\ignorespaces The shifter class}}{11}}
\newlabel{figure:shifter_uml}{{3.8}{11}}
\@writefile{toc}{\contentsline {section}{\numberline {3.6}Sign Extender}{11}}
\@writefile{lof}{\contentsline {figure}{\numberline {3.9}{\ignorespaces The sign\_extender class}}{11}}
\newlabel{figure:sign_extender_uml}{{3.9}{11}}
\@writefile{toc}{\contentsline {section}{\numberline {3.7}Decoder}{12}}
\@writefile{lof}{\contentsline {figure}{\numberline {3.10}{\ignorespaces The decoder class}}{12}}
\newlabel{figure:decoder_uml}{{3.10}{12}}
\@writefile{toc}{\contentsline {section}{\numberline {3.8}Register}{12}}
\@writefile{lof}{\contentsline {figure}{\numberline {3.11}{\ignorespaces The reg class}}{12}}
\newlabel{figure:register_uml}{{3.11}{12}}
\@writefile{toc}{\contentsline {section}{\numberline {3.9}Register file}{13}}
\@writefile{lof}{\contentsline {figure}{\numberline {3.12}{\ignorespaces The register\_file class}}{13}}
\newlabel{figure:regfile_uml}{{3.12}{13}}
\@writefile{toc}{\contentsline {subsection}{\numberline {3.9.1}The read portion}{13}}
\@writefile{lof}{\contentsline {figure}{\numberline {3.13}{\ignorespaces UML diagram for the read portion of the register file}}{13}}
\newlabel{figure:regfile_read_structural}{{3.13}{13}}
\@writefile{toc}{\contentsline {subsection}{\numberline {3.9.2}The write portion}{13}}
\@writefile{lof}{\contentsline {figure}{\numberline {3.14}{\ignorespaces UML diagram for the write portion of the register file}}{14}}
\newlabel{figure:regfile_write_structural}{{3.14}{14}}
\@writefile{toc}{\contentsline {section}{\numberline {3.10}Memory units}{14}}
\@writefile{toc}{\contentsline {subsection}{\numberline {3.10.1}Instruction memory}{14}}
\@writefile{lof}{\contentsline {figure}{\numberline {3.15}{\ignorespaces The instruction\_memory class}}{14}}
\newlabel{figure:instruction_memory_uml}{{3.15}{14}}
\@writefile{toc}{\contentsline {subsection}{\numberline {3.10.2}Data memory}{15}}
\@writefile{lof}{\contentsline {figure}{\numberline {3.16}{\ignorespaces The data\_memory class}}{15}}
\newlabel{figure:data_memory_uml}{{3.16}{15}}
\@writefile{toc}{\contentsline {chapter}{\numberline {4}The Control Unit}{17}}
\@writefile{lof}{\addvspace {10\p@ }}
\@writefile{lot}{\addvspace {10\p@ }}
\@writefile{toc}{\contentsline {section}{\numberline {4.1}Control}{17}}
\@writefile{lof}{\contentsline {figure}{\numberline {4.1}{\ignorespaces The control class}}{17}}
\newlabel{figure:control_uml}{{4.1}{17}}
\@writefile{lot}{\contentsline {table}{\numberline {4.1}{\ignorespaces The supported instructions and the respective values for the control signals}}{17}}
\citation{Hennessy-Patterson}
\@writefile{toc}{\contentsline {section}{\numberline {4.2}ALU Control}{18}}
\@writefile{lof}{\contentsline {figure}{\numberline {4.2}{\ignorespaces The alu\_control class}}{18}}
\newlabel{figure:alu_control_uml}{{4.2}{18}}
\@writefile{toc}{\contentsline {chapter}{\numberline {5}Top-level view}{19}}
\@writefile{lof}{\addvspace {10\p@ }}
\@writefile{lot}{\addvspace {10\p@ }}
\@writefile{lof}{\contentsline {figure}{\numberline {5.1}{\ignorespaces The mips class}}{19}}
\newlabel{figure:mips_uml}{{5.1}{19}}
\@writefile{lof}{\contentsline {figure}{\numberline {5.2}{\ignorespaces The top-level scheme}}{19}}
\newlabel{figure:top_level_uml}{{5.2}{19}}
\@writefile{toc}{\contentsline {chapter}{\numberline {6}Tests}{21}}
\@writefile{lof}{\addvspace {10\p@ }}
\@writefile{lot}{\addvspace {10\p@ }}
\@writefile{toc}{\contentsline {chapter}{\numberline {7}Conclusions}{25}}
\@writefile{lof}{\addvspace {10\p@ }}
\@writefile{lot}{\addvspace {10\p@ }}
\bibdata{biblio}
\@writefile{toc}{\contentsline {chapter}{Bibliography}{26}}
\bibcite{ESD}{1}
\bibcite{Hennessy-Patterson}{2}
\bibstyle{unsrt}
