\select@language {english}
\addvspace {10\p@ }
\addvspace {10\p@ }
\contentsline {figure}{\numberline {2.1}{\ignorespaces The MIPS Single-cycle architecture}}{5}
\contentsline {figure}{\numberline {2.2}{\ignorespaces The formats of the instructions}}{6}
\addvspace {10\p@ }
\contentsline {figure}{\numberline {3.1}{\ignorespaces The logic gates}}{7}
\contentsline {figure}{\numberline {3.2}{\ignorespaces The full\_adder class}}{7}
\contentsline {figure}{\numberline {3.3}{\ignorespaces The mux class}}{8}
\contentsline {figure}{\numberline {3.4}{\ignorespaces The alu class}}{9}
\contentsline {figure}{\numberline {3.5}{\ignorespaces UML diagram for the 1 bit ALU}}{9}
\contentsline {figure}{\numberline {3.6}{\ignorespaces The alu32 class}}{10}
\contentsline {figure}{\numberline {3.7}{\ignorespaces UML diagram for the 32 bit ALU}}{10}
\contentsline {figure}{\numberline {3.8}{\ignorespaces The shifter class}}{11}
\contentsline {figure}{\numberline {3.9}{\ignorespaces The sign\_extender class}}{11}
\contentsline {figure}{\numberline {3.10}{\ignorespaces The decoder class}}{12}
\contentsline {figure}{\numberline {3.11}{\ignorespaces The reg class}}{12}
\contentsline {figure}{\numberline {3.12}{\ignorespaces The register\_file class}}{13}
\contentsline {figure}{\numberline {3.13}{\ignorespaces UML diagram for the read portion of the register file}}{13}
\contentsline {figure}{\numberline {3.14}{\ignorespaces UML diagram for the write portion of the register file}}{14}
\contentsline {figure}{\numberline {3.15}{\ignorespaces The instruction\_memory class}}{14}
\contentsline {figure}{\numberline {3.16}{\ignorespaces The data\_memory class}}{15}
\addvspace {10\p@ }
\contentsline {figure}{\numberline {4.1}{\ignorespaces The control class}}{17}
\contentsline {figure}{\numberline {4.2}{\ignorespaces The alu\_control class}}{18}
\addvspace {10\p@ }
\contentsline {figure}{\numberline {5.1}{\ignorespaces The mips class}}{19}
\contentsline {figure}{\numberline {5.2}{\ignorespaces The top-level scheme}}{19}
\addvspace {10\p@ }
\addvspace {10\p@ }
